[
    {
        "model": "search.shop",
        "pk": "3c3e063e-4be8-430a-8a5f-08ff82f6ce2c",
        "fields": {
            "name": "Discogs",
            "slug": "discogs",
            "url": "https://www.discogs.com/sell/list",
            "digger_name": "discogs",
            "logo": "",
            "icon": "",
            "created_at": "2021-04-21T05:18:23.557Z",
            "updated_at": "2021-04-21T05:18:23.557Z",
            "is_active": true,
            "description": "",
            "region": "",
            "is_independent": true,
            "is_bm": true,
            "is_marketplace": false,
            "is_direct": false
        }
    },
    {
        "model": "search.shop",
        "pk": "42d25bf9-0978-41a2-b6e0-58a2fddd97e5",
        "fields": {
            "name": "Juno Records",
            "slug": "juno-records",
            "url": "https://www.juno.co.uk/",
            "digger_name": "junorecords",
            "logo": "50580464_10158858473964815_9032209549385269248_n.jpg",
            "icon": "index.ico",
            "created_at": "2021-04-21T05:17:16.693Z",
            "updated_at": "2021-04-24T13:39:58.525Z",
            "is_active": true,
            "description": "",
            "region": "WE",
            "is_independent": true,
            "is_bm": false,
            "is_marketplace": false,
            "is_direct": false
        }
    },
    {
        "model": "search.shop",
        "pk": "5c52a81d-6313-4e6b-96ac-58fbb33e32a1",
        "fields": {
            "name": "Piccadilly Records",
            "slug": "piccadilly-records",
            "url": "https://www.piccadillyrecords.com",
            "digger_name": "piccadillyrecords",
            "logo": "1008909_10151655199329133_9162099_o.jpg",
            "icon": "favicon.ico",
            "created_at": "2021-04-21T05:17:16.687Z",
            "updated_at": "2021-04-24T13:36:08.368Z",
            "is_active": true,
            "description": "",
            "region": "WE",
            "is_independent": true,
            "is_bm": true,
            "is_marketplace": false,
            "is_direct": false
        }
    },
    {
        "model": "search.shop",
        "pk": "62810d51-78ed-489c-8134-1c7d1ee8b9fa",
        "fields": {
            "name": "Bandcamp",
            "slug": "bandcamp",
            "url": "https://bandcamp.com",
            "digger_name": "bandcamp",
            "logo": "",
            "icon": "",
            "created_at": "2021-04-21T05:18:23.551Z",
            "updated_at": "2021-04-21T05:18:23.551Z",
            "is_active": true,
            "description": "",
            "region": "",
            "is_independent": true,
            "is_bm": false,
            "is_marketplace": true,
            "is_direct": true
        }
    },
    {
        "model": "search.shop",
        "pk": "c301d119-2561-4d96-acb7-26baf45be36d",
        "fields": {
            "name": "eBay FR",
            "slug": "ebay-fr",
            "url": "https://ebay.fr",
            "digger_name": "ebay",
            "logo": "320px-EBay_logo.svg.png",
            "icon": "ebay.ico",
            "created_at": "2021-04-21T05:18:23.545Z",
            "updated_at": "2021-04-24T13:13:35.311Z",
            "is_active": true,
            "description": "",
            "region": "WE",
            "is_independent": false,
            "is_bm": false,
            "is_marketplace": true,
            "is_direct": false
        }
    },
    {
        "model": "search.shop",
        "pk": "feef23ee-af1d-4375-9439-f7077357b3dd",
        "fields": {
            "name": "Norman Records",
            "slug": "norman-records",
            "url": "https://www.normanrecords.com/",
            "digger_name": "normanrecords",
            "logo": "https://www.normanrecords.com/images/logo/latest.logo.041220.svg",
            "icon": "",
            "created_at": "2021-04-21T05:17:16.681Z",
            "updated_at": "2021-04-21T05:18:23.517Z",
            "is_active": true,
            "description": "",
            "region": "WE",
            "is_independent": true,
            "is_bm": false,
            "is_marketplace": false,
            "is_direct": false
        }
    }
]